{
    "content": [
        {
            "applicationId": 1,
            "examNo": 5,
            "examName": "Rashtrabhasha Prabodh Pariksha (May 2026)",
            "studentId": 1,
            "studentName": "Aarav Sharma",
            "status": "PENDING"
        },
        {
            "applicationId": 2,
            "examNo": 5,
            "examName": "Rashtrabhasha Prabodh Pariksha (May 2026)",
            "studentId": 2,
            "studentName": "Aarav Sharma",
            "status": "PENDING"
        },
        {
            "applicationId": 3,
            "examNo": 5,
            "examName": "Rashtrabhasha Prabodh Pariksha (May 2026)",
            "studentId": 3,
            "studentName": "Priya Patil",
            "status": "PENDING"
        },
        {
            "applicationId": 4,
            "examNo": 3,
            "examName": "Rashtrabhasha Prathamik Pariksha (May 2026)",
            "studentId": 4,
            "studentName": "Rohan Deshmukh",
            "status": "PENDING"
        },
        {
            "applicationId": 5,
            "examNo": 4,
            "examName": "Rashtrabhasha Pravin Pariksha (October 2026)",
            "studentId": 5,
            "studentName": "Sneha Kulkarni",
            "status": "PENDING"
        },
        {
            "applicationId": 6,
            "examNo": 5,
            "examName": "Rashtrabhasha Prabodh Pariksha (May 2026)",
            "studentId": 6,
            "studentName": "Arjun Mehta",
            "status": "PENDING"
        },
        {
            "applicationId": 7,
            "examNo": 5,
            "examName": "Rashtrabhasha Prabodh Pariksha (May 2026)",
            "studentId": 7,
            "studentName": "Kavya Joshi",
            "status": "PENDING"
        },
        {
            "applicationId": 8,
            "examNo": 4,
            "examName": "Rashtrabhasha Pravin Pariksha (October 2026)",
            "studentId": 8,
            "studentName": "Vikram Rao",
            "status": "PENDING"
        },
        {
            "applicationId": 9,
            "examNo": 3,
            "examName": "Rashtrabhasha Prathamik Pariksha (May 2026)",
            "studentId": 9,
            "studentName": "Ananya Iyer",
            "status": "PENDING"
        },
        {
            "applicationId": 10,
            "examNo": 4,
            "examName": "Rashtrabhasha Pravin Pariksha (October 2026)",
            "studentId": 10,
            "studentName": "Sahil Verma",
            "status": "PENDING"
        }
    ],
    "pageable": {
        "pageNumber": 0,
        "pageSize": 10,
        "sort": {
            "empty": true,
            "sorted": false,
            "unsorted": true
        },
        "offset": 0,
        "paged": true,
        "unpaged": false
    },
    "last": false,
    "totalPages": 5,
    "totalElements": 43,
    "first": true,
    "numberOfElements": 10,
    "size": 10,
    "number": 0,
    "sort": {
        "empty": true,
        "sorted": false,
        "unsorted": true
    },
    "empty": false
}