{
    "content": [
        {
            "schoolId": 1,
            "schoolName": "New Modern School",
            "centreId": 1,
            "centreName": "Modern Exam Centre"
        },
        {
            "schoolId": 2,
            "schoolName": "Modern Exam Centre Public School 1",
            "centreId": 1,
            "centreName": "Modern Exam Centre"
        },
        {
            "schoolId": 3,
            "schoolName": "Modern Exam Centre Academy 2",
            "centreId": 1,
            "centreName": "Modern Exam Centre"
        },
        {
            "schoolId": 4,
            "schoolName": "Modern Exam Centre International School 3",
            "centreId": 1,
            "centreName": "Modern Exam Centre"
        },
        {
            "schoolId": 5,
            "schoolName": "Modern Exam Centre High School 4",
            "centreId": 1,
            "centreName": "Modern Exam Centre"
        },
        {
            "schoolId": 6,
            "schoolName": "Modern Exam Centre Convent 5",
            "centreId": 1,
            "centreName": "Modern Exam Centre"
        },
        {
            "schoolId": 7,
            "schoolName": "Pune Central Public School 1",
            "centreId": 2,
            "centreName": "Pune Central"
        },
        {
            "schoolId": 8,
            "schoolName": "Pune Central Academy 2",
            "centreId": 2,
            "centreName": "Pune Central"
        },
        {
            "schoolId": 9,
            "schoolName": "Pune Central International School 3",
            "centreId": 2,
            "centreName": "Pune Central"
        },
        {
            "schoolId": 10,
            "schoolName": "Pune Central High School 4",
            "centreId": 2,
            "centreName": "Pune Central"
        },
        {
            "schoolId": 11,
            "schoolName": "Pune Central Convent 5",
            "centreId": 2,
            "centreName": "Pune Central"
        },
        {
            "schoolId": 12,
            "schoolName": "Kothrud Academy Public School 1",
            "centreId": 3,
            "centreName": "Kothrud Academy"
        },
        {
            "schoolId": 13,
            "schoolName": "Kothrud Academy Academy 2",
            "centreId": 3,
            "centreName": "Kothrud Academy"
        },
        {
            "schoolId": 14,
            "schoolName": "Kothrud Academy International School 3",
            "centreId": 3,
            "centreName": "Kothrud Academy"
        },
        {
            "schoolId": 15,
            "schoolName": "Kothrud Academy High School 4",
            "centreId": 3,
            "centreName": "Kothrud Academy"
        },
        {
            "schoolId": 16,
            "schoolName": "Kothrud Academy Convent 5",
            "centreId": 3,
            "centreName": "Kothrud Academy"
        },
        {
            "schoolId": 17,
            "schoolName": "Hadinagar School of Excellence Public School 1",
            "centreId": 4,
            "centreName": "Hadinagar School of Excellence"
        },
        {
            "schoolId": 18,
            "schoolName": "Hadinagar School of Excellence Academy 2",
            "centreId": 4,
            "centreName": "Hadinagar School of Excellence"
        },
        {
            "schoolId": 19,
            "schoolName": "Hadinagar School of Excellence International School 3",
            "centreId": 4,
            "centreName": "Hadinagar School of Excellence"
        },
        {
            "schoolId": 20,
            "schoolName": "Hadinagar School of Excellence High School 4",
            "centreId": 4,
            "centreName": "Hadinagar School of Excellence"
        }
    ],
    "pageable": {
        "pageNumber": 0,
        "pageSize": 20,
        "sort": {
            "empty": true,
            "sorted": false,
            "unsorted": true
        },
        "offset": 0,
        "unpaged": false,
        "paged": true
    },
    "last": false,
    "totalElements": 131,
    "totalPages": 7,
    "first": true,
    "numberOfElements": 20,
    "size": 20,
    "number": 0,
    "sort": {
        "empty": true,
        "sorted": false,
        "unsorted": true
    },
    "empty": false
}