{
    "content": [
        {
            "schoolId": 1,
            "schoolName": "New Modern School",
            "centreId": 1,
            "centreName": "Modern Exam Centre"
        },
        {
            "schoolId": 2,
            "schoolName": "Modern Exam Centre Public School 1",
            "centreId": 1,
            "centreName": "Modern Exam Centre"
        },
        {
            "schoolId": 3,
            "schoolName": "Modern Exam Centre Academy 2",
            "centreId": 1,
            "centreName": "Modern Exam Centre"
        },
        {
            "schoolId": 4,
            "schoolName": "Modern Exam Centre International School 3",
            "centreId": 1,
            "centreName": "Modern Exam Centre"
        },
        {
            "schoolId": 5,
            "schoolName": "Modern Exam Centre High School 4",
            "centreId": 1,
            "centreName": "Modern Exam Centre"
        },
        {
            "schoolId": 6,
            "schoolName": "Modern Exam Centre Convent 5",
            "centreId": 1,
            "centreName": "Modern Exam Centre"
        },
        {
            "schoolId": 7,
            "schoolName": "Pune Central Public School 1",
            "centreId": 2,
            "centreName": "Pune Central"
        },
        {
            "schoolId": 8,
            "schoolName": "Pune Central Academy 2",
            "centreId": 2,
            "centreName": "Pune Central"
        },
        {
            "schoolId": 9,
            "schoolName": "Pune Central International School 3",
            "centreId": 2,
            "centreName": "Pune Central"
        },
        {
            "schoolId": 10,
            "schoolName": "Pune Central High School 4",
            "centreId": 2,
            "centreName": "Pune Central"
        }
    ],
    "pageable": {
        "pageNumber": 0,
        "pageSize": 10,
        "sort": {
            "empty": true,
            "sorted": false,
            "unsorted": true
        },
        "offset": 0,
        "paged": true,
        "unpaged": false
    },
    "last": false,
    "totalPages": 14,
    "totalElements": 131,
    "size": 10,
    "number": 0,
    "sort": {
        "empty": true,
        "sorted": false,
        "unsorted": true
    },
    "first": true,
    "numberOfElements": 10,
    "empty": false
}